{
    "entities": [
        {
            "type": "Box",
            "init": [
                0,
                1,
                20,
                "#FF0000"
            ],
            "methods": [
                {
                    "name": "move",
					"init":[10,5]
                }
            ]
        },
        {
            "type": "Box",
            "init": [
                0,
                2,
                20,
                "#FF0000"
            ],
            "methods": [
                {
                    "name": "move",
					"init":[10,0]
                }
            ]
        },
        {
            "type": "Player",
            "init": [
                12,
                12,
                22,
                "#00FF00",
				{"id": "Player1"}
            ]
        },
		{
            "type": "Player",
            "init": [
                13,
                12,
                22,
                "#00FF00",
				{"id": "Player2"}
            ]
        }
    ]
}