{
    "entities": [
		{
            "type": "Box",
            "init": [
                0,
                0,
                23,
                "#FF0000"
            ],
            "methods": [
                {
                    "name": "move",
					"init":[10, -10]
                }
            ]
        },
		{
            "type": "Box",
            "init": [
                0,
                0.5,
                25,
                "#FF0000"
            ],
            "methods": [
                {
                    "name": "move",
					"init":[-10, 10]
                }
            ]
        },
		{
            "type": "Box",
            "init": [
                0,
                1,
                21,
                "#FF0000"
            ],
            "methods": [
                {
                    "name": "move",
					"init":[-10, 0]
                },
				{
					"name": "keepSpeed",
					"init": [8]
				}
            ]
        },
				{
            "type": "Box",
            "init": [
                0,
                21.5,
                27,
                "#FF0000"
            ],
            "methods": [
                {
                    "name": "move",
					"init":[25, 0]
                },
				{
					"name": "keepSpeed",
					"init": [10]
				}
            ]
        },
        {
            "type": "Player",
            "init": [
                12,
                12,
                22,
                "#00FF00",
				{"id": "Player1"}
            ]
        }
    ]
}