{
    "entities": [
        {
            "type": "Box",
            "init": [
                5,
                5,
                27,
                "#FF0000"
            ]
        },
		{
            "type": "Box",
            "init": [
                8,
                5,
                25,
                "#FF0000"
            ]
        },
        {
            "type": "Box",
            "init": [
                20.5,
                2,
                18,
                "#FF0000"
            ],
            "methods": [
                {
                    "name": "move",
					"init":[-10,0]
                }
            ]
        },
		{
            "type": "Box",
            "init": [
                0,
                8,
                23,
                "#FF8C00"
            ],
            "methods": [
                {
                    "name": "move",
					"init":[10,0]
                },
				{
					"name": "keepSpeed",
					"init": [5]
				},
				{
					"name": "followPlayer",
					"init": [0]
				}
            ]
        },
        {
            "type": "Player",
            "init": [
                12,
                12,
                22,
                "#00FF00",
				{"id": "Player1"}
            ]
        }
    ]
}