{
    "entities": [
        {
            "type": "Box",
            "init": [
                20.5,
                2,
                18,
                "#FF0000"
            ],
            "methods": [
                {
                    "name": "move",
					"init":[-10,0]
                }
            ]
        },
		{
            "type": "Box",
            "init": [
                8,
                10,
                23,
                "#FF0000"
            ],
            "methods": [
                {
                    "name": "move",
					"init":[0,-10]
                }
            ]
        },
		{
            "type": "Box",
            "init": [
                20.5,
                10,
                25,
                "#FF0000"
            ],
            "methods": [
                {
                    "name": "move",
					"init":[10,10]
                }
            ]
        },
		{
            "type": "Box",
            "init": [
                0,
                0,
                23,
                "#FF8C00"
            ],
            "methods": [
                {
                    "name": "move",
					"init":[15,0]
                },
				{
					"name": "followPlayer",
					"init": [0]
				}
            ]
        },
		{
            "type": "Box",
            "init": [
                20.5,
                0,
                27,
                "#FF8C00"
            ],
            "methods": [
                {
                    "name": "move",
					"init":[20,0]
                },
				{
					"name": "followPlayer",
					"init": [0]
				},
				{
					"name": "sleep",
					"init": [240]
				}
            ]
        },
        {
            "type": "Player",
            "init": [
                12,
                12,
                22,
                "#00FF00",
				{"id": "Player1"}
            ]
        }
    ]
}