{
    "entities": [
		{
            "type": "Box",
            "init": [
                0,
                1,
                35,
                "#FF0000"
            ],
            "methods": [
                {
                    "name": "move",
					"init":[20,0]
                }
            ]
        },
        {
            "type": "Box",
            "init": [
                0,
                2,
                23,
                "#FF0000"
            ],
            "methods": [
                {
                    "name": "move",
					"init":[10,0]
                }
            ]
        },
		{
            "type": "Box",
            "init": [
                0,
                2.5,
                19,
                "#FF0000"
            ],
            "methods": [
                {
                    "name": "move",
					"init":[9.5,0]
                }
            ]
        },
		{
            "type": "Box",
            "init": [
                0,
                3,
                25,
                "#FF0000"
            ],
            "methods": [
                {
                    "name": "move",
					"init":[9.3,0]
                }
            ]
        },
		{
            "type": "Box",
            "init": [
                0,
                3.5,
                13,
                "#FF0000"
            ],
            "methods": [
                {
                    "name": "move",
					"init":[9,0]
                }
            ]
        },
		
		{
            "type": "Box",
            "init": [
                0,
                4.5,
                30,
                "#FF0000"
            ],
            "methods": [
                {
                    "name": "move",
					"init":[13,0]
                }
            ]
        },
		{
            "type": "Box",
            "init": [
                0,
                6,
                30,
                "#FF0000"
            ],
            "methods": [
                {
                    "name": "move",
					"init":[13,0]
                }
            ]
        },
		{
            "type": "Box",
            "init": [
                0,
                7,
                13,
                "#FF0000"
            ],
            "methods": [
                {
                    "name": "move",
					"init":[9.3,0]
                }
            ]
        },
		
		
		{
            "type": "Box",
            "init": [
                0,
                7.5,
                19,
                "#FF0000"
            ],
            "methods": [
                {
                    "name": "move",
					"init":[9.5,0]
                }
            ]
        },
		{
            "type": "Box",
            "init": [
                0,
                8,
                23,
                "#FF0000"
            ],
            "methods": [
                {
                    "name": "move",
					"init":[10,0]
                }
            ]
        },
        {
            "type": "Player",
            "init": [
                12,
                12,
                18,
                "#00FF00",
				{"id": "Player1"}
            ]
        }
    ]
}